epoch,accuracy,loss,val_accuracy,val_loss
0,0.9766218662261963,0.07511032372713089,0.9865449666976929,0.03939700499176979
1,0.9888467788696289,0.03477231413125992,0.99130779504776,0.02663644775748253
2,0.9919228553771973,0.02664010412991047,0.9932526350021362,0.020383765920996666
3,0.9923396110534668,0.024520544335246086,0.9922603964805603,0.02976260520517826
4,0.9930838346481323,0.022890113294124603,0.9955943822860718,0.017794139683246613
5,0.9930143356323242,0.023476531729102135,0.9940067529678345,0.024628881365060806
6,0.9938875436782837,0.020476607605814934,0.9950783848762512,0.015437602065503597
7,0.9930540323257446,0.026252007111907005,0.9923397302627563,0.025646135210990906
8,0.9943539500236511,0.017693186178803444,0.9941258430480957,0.02214868552982807
9,0.9947806000709534,0.01809312403202057,0.9956737160682678,0.016302773728966713
10,0.9943142533302307,0.019072871655225754,0.995157778263092,0.015975043177604675
11,0.9946913123130798,0.01640208624303341,0.9949989914894104,0.016579968854784966
12,0.9943142533302307,0.020281502977013588,0.9954355955123901,0.01499342080205679
13,0.9954553842544556,0.015605096705257893,0.9948005676269531,0.01673302799463272
14,0.9952767491340637,0.01679467409849167,0.9958721995353699,0.01499451044946909
15,0.9957332015037537,0.013634078204631805,0.9956737160682678,0.012963684275746346
16,0.9948996901512146,0.016853079199790955,0.9954752922058105,0.015051200054585934
17,0.9955446720123291,0.014454673044383526,0.9950783848762512,0.01580704003572464
18,0.9949989318847656,0.017189878970384598,0.9907124638557434,0.03599852696061134
19,0.9945027828216553,0.020745331421494484,0.9953165054321289,0.017100272700190544
20,0.9953858852386475,0.0168805830180645,0.9966660141944885,0.013160120695829391
21,0.9957728981971741,0.0131521075963974,0.9958325028419495,0.0161086805164814
22,0.9958224892616272,0.012061175890266895,0.99495929479599,0.018747929483652115
23,0.9957728981971741,0.012812032364308834,0.9957531094551086,0.0163474902510643
24,0.9959713220596313,0.013202025555074215,0.9959515929222107,0.013700682669878006
25,0.9952866435050964,0.015830673277378082,0.9907917976379395,0.033148620277643204
26,0.9951179623603821,0.015519954264163971,0.9965072274208069,0.015079759061336517
27,0.9952569007873535,0.018104584887623787,0.995157778263092,0.018384376540780067
28,0.9958820343017578,0.013256775215268135,0.9954355955123901,0.017759202048182487
29,0.9959812760353088,0.012747788801789284,0.9959912896156311,0.013951760716736317
30,0.9963087439537048,0.01138618215918541,0.9956737160682678,0.013957575894892216
31,0.9942547082901001,0.039304036647081375,0.9939670562744141,0.02188294753432274
32,0.9954454302787781,0.018624121323227882,0.9961897134780884,0.016600055620074272
33,0.9959415793418884,0.013033376075327396,0.9960309863090515,0.015000587329268456
34,0.9960408210754395,0.012497260235249996,0.9956737160682678,0.01404284592717886
35,0.9958125948905945,0.01287512294948101,0.9954752922058105,0.020459771156311035
36,0.995395839214325,0.018860792741179466,0.9944830536842346,0.021573439240455627
37,0.9952866435050964,0.01900806650519371,0.9950386881828308,0.017610877752304077
38,0.9961102604866028,0.013459939509630203,0.9963088035583496,0.014812027104198933
39,0.9964774250984192,0.010534364730119705,0.9964675307273865,0.015100394375622272
40,0.9950882196426392,0.016426589339971542,0.9953562021255493,0.01716703549027443
41,0.9956042170524597,0.014755510725080967,0.995792806148529,0.015498805791139603
42,0.9960904121398926,0.011639979667961597,0.9953165054321289,0.016473140567541122
43,0.9952866435050964,0.014948100782930851,0.9953562021255493,0.022637315094470978
44,0.9960705637931824,0.01211441121995449,0.9946417808532715,0.023101698607206345
45,0.9951080679893494,0.017794374376535416,0.9959118962287903,0.01583809219300747
46,0.9962690472602844,0.011218857020139694,0.9944433569908142,0.01699407771229744
47,0.9958919882774353,0.013820819556713104,0.9954355955123901,0.016245242208242416
48,0.9951179623603821,0.01752062328159809,0.9954752922058105,0.01485613826662302
49,0.995901882648468,0.01205733884125948,0.995514988899231,0.018982993438839912
